Final Project.sim/sim_1/behav/xsim/tb_top_system.vcd
$date
   Mon May 11 15:43:10 2026
$end
$version
  2022.2
$end
$timescale
  1ps
$end
$scope module tb_top_system $end
$var reg 1 ! clk $end
$var reg 1 " rst_n $end
$var reg 32 # S_AXI_AWADDR [31:0] $end
$var reg 1 $ S_AXI_AWVALID $end
$var wire 1 % S_AXI_AWREADY $end
$var reg 32 & S_AXI_WDATA [31:0] $end
$var reg 4 ' S_AXI_WSTRB [3:0] $end
$var reg 1 ( S_AXI_WVALID $end
$var wire 1 ) S_AXI_WREADY $end
$var reg 1 * S_AXI_BREADY $end
$var wire 2 + S_AXI_BRESP [1:0] $end
$var wire 1 , S_AXI_BVALID $end
$var reg 32 - S_AXI_ARADDR [31:0] $end
$var reg 1 . S_AXI_ARVALID $end
$var wire 1 / S_AXI_ARREADY $end
$var reg 1 0 S_AXI_RREADY $end
$var wire 32 1 S_AXI_RDATA [31:0] $end
$var wire 2 2 S_AXI_RRESP [1:0] $end
$var wire 1 3 S_AXI_RVALID $end
$var integer 32 4 r [31:0] $end
$var integer 32 5 c [31:0] $end
$var integer 32 6 idx [31:0] $end
$var integer 32 7 errors [31:0] $end
$var integer 32 8 timeout_count [31:0] $end
$var reg 32 9 read_data [31:0] $end
$scope module dut $end
$var wire 32 : S_AXI_AWADDR [31:0] $end
$var wire 1 ; S_AXI_AWVALID $end
$var wire 1 % S_AXI_AWREADY $end
$var wire 32 < S_AXI_WDATA [31:0] $end
$var wire 4 = S_AXI_WSTRB [3:0] $end
$var wire 1 > S_AXI_WVALID $end
$var wire 1 ) S_AXI_WREADY $end
$var wire 1 ? S_AXI_BREADY $end
$var wire 2 + S_AXI_BRESP [1:0] $end
$var wire 1 , S_AXI_BVALID $end
$var wire 32 @ S_AXI_ARADDR [31:0] $end
$var wire 1 A S_AXI_ARVALID $end
$var wire 1 / S_AXI_ARREADY $end
$var wire 1 B S_AXI_RREADY $end
$var wire 32 1 S_AXI_RDATA [31:0] $end
$var wire 2 2 S_AXI_RRESP [1:0] $end
$var wire 1 3 S_AXI_RVALID $end
$var wire 1 C S_AXI_ACLK $end
$var wire 1 D S_AXI_ARESETN $end
$var wire 1 E start $end
$var wire 1 F done $end
$var wire 1 G input_we_axi $end
$var wire 6 H input_addr_axi [5:0] $end
$var wire 8 I input_din_axi [7:0] $end
$var wire 1 J weight_we_axi $end
$var wire 12 K weight_addr_axi [11:0] $end
$var wire 8 L weight_din_axi [7:0] $end
$var wire 6 M output_addr_axi [5:0] $end
$var wire 32 N output_dout [31:0] $end
$var wire 1 O fsm_busy $end
$var wire 1 P compute_mode $end
$var wire 6 Q input_addr_fsm [5:0] $end
$var wire 8 R input_dout [7:0] $end
$var wire 12 S weight_addr_fsm [11:0] $end
$var wire 8 T weight_dout [7:0] $end
$var wire 1 U output_we_fsm $end
$var wire 6 V output_addr_fsm [5:0] $end
$var wire 32 W output_din_fsm [31:0] $end
$var wire 1 X mac_clear $end
$var wire 1 Y mac_en $end
$var wire 32 Z mac_acc_out [31:0] $end
$var wire 1 [ input_we_bram $end
$var wire 6 \ input_addr_bram [5:0] $end
$var wire 1 ] weight_we_bram $end
$var wire 12 ^ weight_addr_bram [11:0] $end
$var wire 1 _ output_we_bram $end
$var wire 6 ` output_addr_bram [5:0] $end
$scope module u_axi_slave $end
$var wire 32 : S_AXI_AWADDR [31:0] $end
$var wire 1 ; S_AXI_AWVALID $end
$var wire 1 % S_AXI_AWREADY $end
$var wire 32 < S_AXI_WDATA [31:0] $end
$var wire 4 = S_AXI_WSTRB [3:0] $end
$var wire 1 > S_AXI_WVALID $end
$var wire 1 ) S_AXI_WREADY $end
$var wire 1 ? S_AXI_BREADY $end
$var wire 2 + S_AXI_BRESP [1:0] $end
$var wire 1 , S_AXI_BVALID $end
$var wire 32 @ S_AXI_ARADDR [31:0] $end
$var wire 1 A S_AXI_ARVALID $end
$var wire 1 / S_AXI_ARREADY $end
$var wire 1 B S_AXI_RREADY $end
$var wire 32 1 S_AXI_RDATA [31:0] $end
$var wire 2 2 S_AXI_RRESP [1:0] $end
$var wire 1 3 S_AXI_RVALID $end
$var wire 1 E start $end
$var wire 1 F done $end
$var wire 1 G input_we $end
$var wire 6 H input_addr [5:0] $end
$var wire 8 I input_din [7:0] $end
$var wire 1 J weight_we $end
$var wire 12 K weight_addr [11:0] $end
$var wire 8 L weight_din [7:0] $end
$var wire 6 M output_addr [5:0] $end
$var wire 32 N output_dout [31:0] $end
$var wire 1 C S_AXI_ACLK $end
$var wire 1 D S_AXI_ARESETN $end
$var reg 1 a awready_r $end
$var reg 1 b wready_r $end
$var reg 1 c bvalid_r $end
$var reg 1 d arready_r $end
$var reg 1 e rvalid_r $end
$var reg 2 f bresp_r [1:0] $end
$var reg 2 g rresp_r [1:0] $end
$var reg 32 h rdata_r [31:0] $end
$var reg 32 i awaddr_reg [31:0] $end
$var reg 32 j wdata_reg [31:0] $end
$var reg 4 k wstrb_reg [3:0] $end
$var reg 1 l aw_hold $end
$var reg 1 m w_hold $end
$var reg 1 n write_pending $end
$var reg 32 o araddr_reg [31:0] $end
$var reg 1 p read_pending $end
$var reg 1 q read_wait $end
$var wire 1 r write_ctrl $end
$var wire 1 s write_input $end
$var wire 1 t write_weight $end
$var wire 1 u read_ctrl $end
$var wire 1 v read_output $end
$upscope $end
$scope module u_fsm_ctrl $end
$var wire 1 C clk $end
$var wire 1 D rst_n $end
$var wire 1 E start $end
$var wire 8 R input_dout [7:0] $end
$var wire 8 T weight_dout [7:0] $end
$var wire 32 Z mac_acc_out [31:0] $end
$var reg 1 w done $end
$var wire 1 O busy $end
$var reg 1 x output_we $end
$var reg 1 y mac_clear $end
$var reg 1 z mac_en $end
$var wire 6 Q input_addr [5:0] $end
$var wire 12 S weight_addr [11:0] $end
$var wire 6 V output_addr [5:0] $end
$var wire 32 W output_din [31:0] $end
$var reg 6 { row [5:0] $end
$var reg 6 | col [5:0] $end
$var reg 4 } state [3:0] $end
$var reg 4 ~ nextstate [3:0] $end
$upscope $end
$scope module u_mac_array $end
$var wire 1 C clk $end
$var wire 1 D rst_n $end
$var wire 1 X clear_acc $end
$var wire 1 Y en $end
$var wire 8 R input_data [7:0] $end
$var wire 8 T weight_data [7:0] $end
$var wire 32 Z acc_out [31:0] $end
$var reg 32 !! acc [31:0] $end
$upscope $end
$scope module u_input_bram $end
$var wire 1 C clk $end
$var wire 1 [ we $end
$var wire 6 \ addr [5:0] $end
$var wire 8 I din [7:0] $end
$var wire 8 R dout [7:0] $end
$var reg 8 "! dout_reg [7:0] $end
$upscope $end
$scope module u_weight_bram $end
$var wire 1 C clk $end
$var wire 1 ] we $end
$var wire 12 ^ addr [11:0] $end
$var wire 8 L din [7:0] $end
$var wire 8 T dout [7:0] $end
$var reg 8 #! dout_reg [7:0] $end
$upscope $end
$scope module u_output_bram $end
$var wire 1 C clk $end
$var wire 1 _ we $end
$var wire 6 ` addr [5:0] $end
$var wire 32 W din [31:0] $end
$var wire 32 N dout [31:0] $end
$var reg 32 $! dout_reg [31:0] $end
$upscope $end
$upscope $end
$scope task axi_write $end
$var reg 32 %! addr [31:0] $end
$var reg 32 &! data [31:0] $end
$upscope $end
$scope task axi_read $end
$var reg 32 '! addr [31:0] $end
$var reg 32 (! data [31:0] $end
$upscope $end
$upscope $end
$enddefinitions $end
#0
$dumpvars
0!
b0 !!
0"
bx "!
b0 #
bx #!
0$
bx $!
x%
bx %!
b0 &
bx &!
b0 '
bx '!
0(
bx (!
x)
0*
bx +
x,
b0 -
0.
x/
00
bx 1
bx 2
x3
b1000000 4
b1000000 5
b111111111111 6
b0 7
bx 8
bx 9
b0 :
0;
b0 <
b0 =
0>
0?
b0 @
0A
0B
0C
0D
xE
0F
xG
bx H
bx I
xJ
bx K
bx L
bx M
bx N
0O
0P
b0 Q
bx R
b0 S
bx T
0U
b0 V
b0 W
0X
0Y
b0 Z
x[
bx \
x]
bx ^
0_
bx `
xa
xb
xc
xd
xe
bx f
bx g
bx h
bx i
bx j
bx k
xl
xm
xn
bx o
xp
xq
xr
xs
xt
xu
xv
0w
0x
0y
0z
b0 {
b0 |
b0 }
b0 ~
$end
#5000
1!
0%
0)
b0 +
0,
0/
b0 1
b0 2
03
1C
0E
0G
b0 H
b0 I
0J
b0 K
b0 L
b0 M
0[
b0 \
0]
b0 ^
b0 `
0a
0b
0c
0d
0e
b0 f
b0 g
b0 h
b0 i
b0 j
b0 k
0l
0m
0n
b0 o
0p
0q
1r
0s
0t
1u
0v
0w
0x
0y
0z
#10000
0!
0C
#15000
1!
1C
#20000
0!
0C
#25000
1!
1C
#30000
0!
0C
#35000
1!
1C
#40000
0!
0C
#45000
1!
1C
#50000
0!
0C
#55000
1!
1C
#60000
0!
0C
#65000
1!
1C
#70000
0!
0C
#75000
1!
1C
#80000
0!
0C
#85000
1!
1C
#90000
0!
0C
#95000
1!
1"
1%
1)
1/
1C
1D
1a
1b
1d
#100000
0!
0C
#105000
1!
1C
#110000
0!
0C
#115000
1!
1C
#120000
0!
0C
#125000
1!
1C
#130000
0!
0C
#135000
1!
1C
#140000
0!
0C
#145000
1!
b1000000000000 %!
b11111100 &!
b0 5
1C
#150000
0!
0C
#155000
1!
b1000000000000 #
1$
b11111100 &
b1111 '
1(
1*
b1000000000000 :
1;
b11111100 <
b1111 =
1>
1?
1C
#160000
0!
0C
#165000
1!
0$
0(
0;
0>
1C
0E
0G
b11111100 I
0J
b11111100 L
b1000000000000 i
b11111100 j
b1111 k
1l
1m
0r
1s
0t
#170000
0!
0C
#175000
1!
0%
0)
1C
0E
1G
0J
1[
0a
0b
1n
#180000
0!
0C
#185000
1!
1,
1C
0E
0G
0J
0[
1c
0l
0m
0n
#190000
0!
0C
#195000
1!
b11111100 "!
0,
1C
b11111100 R
0c
#200000
0!
0C
#205000
1!
1%
b1000000000001 %!
b11111101 &!
1)
0*
b1 5
0?
1C
1a
1b
#210000
0!
0C
#215000
1!
b1000000000001 #
1$
b11111101 &
1(
1*
b1000000000001 :
1;
b11111101 <
1>
1?
1C
#220000
0!
0C
#225000
1!
0$
0(
0;
0>
1C
0E
b1 H
b11111101 I
b1 K
b11111101 L
b1 \
b1 ^
b1000000000001 i
b11111101 j
1l
1m
#230000
0!
0C
#235000
1!
bx "!
0%
0)
1C
0E
1G
0J
bx R
1[
0a
0b
1n
#240000
0!
0C
#245000
1!
1,
1C
0E
0G
0J
0[
1c
0l
0m
0n
#250000
0!
0C
#255000
1!
b11111101 "!
0,
1C
b11111101 R
0c
#260000
0!
0C
#265000
1!
1%
b1000000000010 %!
b11111110 &!
1)
0*
b10 5
0?
1C
1a
1b
#270000
0!
0C
#275000
1!
b1000000000010 #
1$
b11111110 &
1(
1*
b1000000000010 :
1;
b11111110 <
1>
1?
1C
#280000
0!
0C
#285000
1!
0$
0(
0;
0>
1C
0E
b10 H
b11111110 I
b10 K
b11111110 L
b10 \
b10 ^
b1000000000010 i
b11111110 j
1l
1m
#290000
0!
0C
#295000
1!
bx "!
0%
0)
1C
0E
1G
0J
bx R
1[
0a
0b
1n
#300000
0!
0C
#305000
1!
1,
1C
0E
0G
0J
0[
1c
0l
0m
0n
#310000
0!
0C
#315000
1!
b11111110 "!
0,
1C
b11111110 R
0c
#320000
0!
0C
#325000
1!
1%
b1000000000011 %!
b11111111 &!
1)
0*
b11 5
0?
1C
1a
1b
#330000
0!
0C
#335000
1!
b1000000000011 #
1$
b11111111 &
1(
1*
b1000000000011 :
1;
b11111111 <
1>
1?
1C
#340000
0!
0C
#345000
1!
0$
0(
0;
0>
1C
0E
b11 H
b11111111 I
b11 K
b11111111 L
b11 \
b11 ^
b1000000000011 i
b11111111 j
1l
1m
#350000
0!
0C
#355000
1!
bx "!
0%
0)
1C
0E
1G
0J
bx R
1[
0a
0b
1n
#360000
0!
0C
#365000
1!
1,
1C
0E
0G
0J
0[
1c
0l
0m
0n
#370000
0!
0C
#375000
1!
b11111111 "!
0,
1C
b11111111 R
0c
#380000
0!
0C
#385000
1!
1%
b1000000000100 %!
b0 &!
1)
0*
b100 5
0?
1C
1a
1b
#390000
0!
0C
#395000
1!
b1000000000100 #
1$
b0 &
1(
1*
b1000000000100 :
1;
b0 <
1>
1?
1C
#400000
0!
0C
#405000
1!
0$
0(
0;
0>
1C
0E
b100 H
b0 I
b100 K
b0 L
b100 \
b100 ^
b1000000000100 i
b0 j
1l
1m
#410000
0!
0C
#415000
1!
bx "!
0%
0)
1C
0E
1G
0J
bx R
1[
0a
0b
1n
#420000
0!
0C
#425000
1!
1,
1C
0E
0G
0J
0[
1c
0l
0m
0n
#430000
0!
0C
#435000
1!
b0 "!
0,
1C
b0 R
0c
#440000
0!
0C
#445000
1!
1%
b1000000000101 %!
b1 &!
1)
0*
b101 5
0?
1C
1a
1b
#450000
0!
0C
#455000
1!
b1000000000101 #
1$
b1 &
1(
1*
b1000000000101 :
1;
b1 <
1>
1?
1C
#460000
0!
0C
#465000
1!
0$
0(
0;
0>
1C
0E
b101 H
b1 I
b101 K
b1 L
b101 \
b101 ^
b1000000000101 i
b1 j
1l
1m
#470000
0!
0C
#475000
1!
bx "!
0%
0)
1C
0E
1G
0J
bx R
1[
0a
0b
1n
#480000
0!
0C
#485000
1!
1,
1C
0E
0G
0J
0[
1c
0l
0m
0n
#490000
0!
0C
#495000
1!
b1 "!
0,
1C
b1 R
0c
#500000
0!
0C
#505000
1!
1%
b1000000000110 %!
b10 &!
1)
0*
b110 5
0?
1C
1a
1b
#510000
0!
0C
#515000
1!
b1000000000110 #
1$
b10 &
1(
1*
b1000000000110 :
1;
b10 <
1>
1?
1C
#520000
0!
0C
#525000
1!
0$
0(
0;
0>
1C
0E
b110 H
b10 I
b110 K
b10 L
b110 \
b110 ^
b1000000000110 i
b10 j
1l
1m
#530000
0!
0C
#535000
1!
bx "!
0%
0)
1C
0E
1G
0J
bx R
1[
0a
0b
1n
#540000
0!
0C
#545000
1!
1,
1C
0E
0G
0J
0[
1c
0l
0m
0n
#550000
0!
0C
#555000
1!
b10 "!
0,
1C
b10 R
0c
#560000
0!
0C
#565000
1!
1%
b1000000000111 %!
b11 &!
1)
0*
b111 5
0?
1C
1a
1b
#570000
0!
0C
#575000
1!
b1000000000111 #
1$
b11 &
1(
1*
b1000000000111 :
1;
b11 <
1>
1?
1C
#580000
0!
0C
#585000
1!
0$
0(
0;
0>
1C
0E
b111 H
b11 I
b111 K
b11 L
b111 \
b111 ^
b1000000000111 i
b11 j
1l
1m
#590000
0!
0C
#595000
1!
bx "!
0%
0)
1C
0E
1G
0J
bx R
1[
0a
0b
1n
#600000
0!
0C
#605000
1!
1,
1C
0E
0G
0J
0[
1c
0l
0m
0n
#610000
0!
0C
#615000
1!
b11 "!
0,
1C
b11 R
0c
#620000
0!
0C
#625000
1!
1%
b1000000001000 %!
b11111100 &!
1)
0*
b1000 5
0?
1C
1a
1b
#630000
0!
0C
#635000
1!
b1000000001000 #
1$
b11111100 &
1(
1*
b1000000001000 :
1;
b11111100 <
1>
1?
1C
#640000
0!
0C
#645000
1!
0$
0(
0;
0>
1C
0E
b1000 H
b11111100 I
b1000 K
b11111100 L
b1000 \
b1000 ^
b1000000001000 i
b11111100 j
1l
1m
#650000
0!
0C
#655000
1!
bx "!
0%
0)
1C
0E
1G
0J
bx R
1[
0a
0b
1n
#660000
0!
0C
#665000
1!
1,
1C
0E
0G
0J
0[
1c
0l
0m
0n
#670000
0!
0C
#675000
1!
b11111100 "!
0,
1C
b11111100 R
0c
#680000
0!
0C
#685000
1!
1%
b1000000001001 %!
b11111101 &!
1)
0*
b1001 5
0?
1C
1a
1b
#690000
0!
0C
#695000
1!
b1000000001001 #
1$
b11111101 &
1(
1*
b1000000001001 :
1;
b11111101 <
1>
1?
1C
#700000
0!
0C
#705000
1!
0$
0(
0;
0>
1C
0E
b1001 H
b11111101 I
b1001 K
b11111101 L
b1001 \
b1001 ^
b1000000001001 i
b11111101 j
1l
1m
#710000
0!
0C
#715000
1!
bx "!
0%
0)
1C
0E
1G
0J
bx R
1[
0a
0b
1n
#720000
0!
0C
#725000
1!
1,
1C
0E
0G
0J
0[
1c
0l
0m
0n
#730000
0!
0C
#735000
1!
b11111101 "!
0,
1C
b11111101 R
0c
#740000
0!
0C
#745000
1!
1%
b1000000001010 %!
b11111110 &!
1)
0*
b1010 5
0?
1C
1a
1b
#750000
0!
0C
#755000
1!
b1000000001010 #
1$
b11111110 &
1(
1*
b1000000001010 :
1;
b11111110 <
1>
1?
1C
#760000
0!
0C
#765000
1!
0$
0(
0;
0>
1C
0E
b1010 H
b11111110 I
b1010 K
b11111110 L
b1010 \
b1010 ^
b1000000001010 i
b11111110 j
1l
1m
#770000
0!
0C
#775000
1!
bx "!
0%
0)
1C
0E
1G
0J
bx R
1[
0a
0b
1n
#780000
0!
0C
#785000
1!
1,
1C
0E
0G
0J
0[
1c
0l
0m
0n
#790000
0!
0C
#795000
1!
b11111110 "!
0,
1C
b11111110 R
0c
#800000
0!
0C
#805000
1!
1%
b1000000001011 %!
b11111111 &!
1)
0*
b1011 5
0?
1C
1a
1b
#810000
0!
0C
#815000
1!
b1000000001011 #
1$
b11111111 &
1(
1*
b1000000001011 :
1;
b11111111 <
1>
1?
1C
#820000
0!
0C
#825000
1!
0$
0(
0;
0>
1C
0E
b1011 H
b11111111 I
b1011 K
b11111111 L
b1011 \
b1011 ^
b1000000001011 i
b11111111 j
1l
1m
#830000
0!
0C
#835000
1!
bx "!
0%
0)
1C
0E
1G
0J
bx R
1[
0a
0b
1n
#840000
0!
0C
#845000
1!
1,
1C
0E
0G
0J
0[
1c
0l
0m
0n
#850000
0!
0C
#855000
1!
b11111111 "!
0,
1C
b11111111 R
0c
#860000
0!
0C
#865000
1!
1%
b1000000001100 %!
b0 &!
1)
0*
b1100 5
0?
1C
1a
1b
#870000
0!
0C
#875000
1!
b1000000001100 #
1$
b0 &
1(
1*
b1000000001100 :
1;
b0 <
1>
1?
1C
#880000
0!
0C
#885000
1!
0$
0(
0;
0>
1C
0E
b1100 H
b0 I
b1100 K
b0 L
b1100 \
b1100 ^
b1000000001100 i
b0 j
1l
1m
#890000
0!
0C
#895000
1!
bx "!
0%
0)
1C
0E
1G
0J
bx R
1[
0a
0b
1n
#900000
0!
0C
#905000
1!
1,
1C
0E
0G
0J
0[
1c
0l
0m
0n
#910000
0!
0C
#915000
1!
b0 "!
0,
1C
b0 R
0c
#920000
0!
0C
#925000
1!
1%
b1000000001101 %!
b1 &!
1)
0*
b1101 5
0?
1C
1a
1b
#930000
0!
0C
#935000
1!
b1000000001101 #
1$
b1 &
1(
1*
b1000000001101 :
1;
b1 <
1>
1?
1C
#940000
0!
0C
#945000
1!
0$
0(
0;
0>
1C
0E
b1101 H
b1 I
b1101 K
b1 L
b1101 \
b1101 ^
b1000000001101 i
b1 j
1l
1m
#950000
0!
0C
#955000
1!
bx "!
0%
0)
1C
0E
1G
0J
bx R
1[
0a
0b
1n
#960000
0!
0C
#965000
1!
1,
1C
0E
0G
0J
0[
1c
0l
0m
0n
#970000
0!
0C
#975000
1!
b1 "!
0,
1C
b1 R
0c
#980000
0!
0C
#985000
1!
1%
b1000000001110 %!
b10 &!
1)
0*
b1110 5
0?
1C
1a
1b
#990000
0!
0C
#995000
1!
b1000000001110 #
1$
b10 &
1(
1*
b1000000001110 :
1;
b10 <
1>
1?
1C
#1000000
0!
0C
#1005000
1!
0$
0(
0;
0>
1C
0E
b1110 H
b10 I
b1110 K
b10 L
b1110 \
b1110 ^
b1000000001110 i
b10 j
1l
1m
#1010000
0!
0C
#1015000
1!
bx "!
0%
0)
1C
0E
1G
0J
bx R
1[
0a
0b
1n
#1020000
0!
0C
#1025000
1!
1,
1C
0E
0G
0J
0[
1c
0l
0m
0n
#1030000
0!
0C
#1035000
1!
b10 "!
0,
1C
b10 R
0c
#1040000
0!
0C
#1045000
1!
1%
b1000000001111 %!
b11 &!
1)
0*
b1111 5
0?
1C
1a
1b
#1050000
0!
0C
#1055000
1!
b1000000001111 #
1$
b11 &
1(
1*
b1000000001111 :
1;
b11 <
1>
1?
1C
#1060000
0!
0C
#1065000
1!
0$
0(
0;
0>
1C
0E
b1111 H
b11 I
b1111 K
b11 L
b1111 \
b1111 ^
b1000000001111 i
b11 j
1l
1m
#1070000
0!
0C
#1075000
1!
bx "!
0%
0)
1C
0E
1G
0J
bx R
1[
0a
0b
1n
#1080000
0!
0C
#1085000
1!
1,
1C
0E
0G
0J
0[
1c
0l
0m
0n
#1090000
0!
0C
#1095000
1!
b11 "!
0,
1C
b11 R
0c
#1100000
0!
0C
#1105000
1!
1%
b1000000010000 %!
b11111100 &!
1)
0*
b10000 5
0?
1C
1a
1b
#1110000
0!
0C
#1115000
1!
b1000000010000 #
1$
b11111100 &
1(
1*
b1000000010000 :
1;
b11111100 <
1>
1?
1C
#1120000
0!
0C
#1125000
1!
0$
0(
0;
0>
1C
0E
b10000 H
b11111100 I
b10000 K
b11111100 L
b10000 \
b10000 ^
b1000000010000 i
b11111100 j
1l
1m
#1130000
0!
0C
#1135000
1!
bx "!
0%
0)
1C
0E
1G
0J
bx R
1[
0a
0b
1n
#1140000
0!
0C
#1145000
1!
1,
1C
0E
0G
0J
0[
1c
0l
0m
0n
#1150000
0!
0C
#1155000
1!
b11111100 "!
0,
1C
b11111100 R
0c
#1160000
0!
0C
#1165000
1!
1%
b1000000010001 %!
b11111101 &!
1)
0*
b10001 5
0?
1C
1a
1b
#1170000
0!
0C
#1175000
1!
b1000000010001 #
1$
b11111101 &
1(
1*
b1000000010001 :
1;
b11111101 <
1>
1?
1C
#1180000
0!
0C
#1185000
1!
0$
0(
0;
0>
1C
0E
b10001 H
b11111101 I
b10001 K
b11111101 L
b10001 \
b10001 ^
b1000000010001 i
b11111101 j
1l
1m
#1190000
0!
0C
#1195000
1!
bx "!
0%
0)
1C
0E
1G
0J
bx R
1[
0a
0b
1n
#1200000
0!
0C
#1205000
1!
1,
1C
0E
0G
0J
0[
1c
0l
0m
0n
#1210000
0!
0C
#1215000
1!
b11111101 "!
0,
1C
b11111101 R
0c
#1220000
0!
0C
#1225000
1!
1%
b1000000010010 %!
b11111110 &!
1)
0*
b10010 5
0?
1C
1a
1b
#1230000
0!
0C
#1235000
1!
b1000000010010 #
1$
b11111110 &
1(
1*
b1000000010010 :
1;
b11111110 <
1>
1?
1C
#1240000
0!
0C
#1245000
1!
0$
0(
0;
0>
1C
0E
b10010 H
b11111110 I
b10010 K
b11111110 L
b10010 \
b10010 ^
b1000000010010 i
b11111110 j
1l
1m
#1250000
0!
0C
#1255000
1!
bx "!
0%
0)
1C
0E
1G
0J
bx R
1[
0a
0b
1n
#1260000
0!
0C
#1265000
1!
1,
1C
0E
0G
0J
0[
1c
0l
0m
0n
#1270000
0!
0C
#1275000
1!
b11111110 "!
0,
1C
b11111110 R
0c
#1280000
0!
0C
#1285000
1!
1%
b1000000010011 %!
b11111111 &!
1)
0*
b10011 5
0?
1C
1a
1b
#1290000
0!
0C
#1295000
1!
b1000000010011 #
1$
b11111111 &
1(
1*
b1000000010011 :
1;
b11111111 <
1>
1?
1C
#1300000
0!
0C
#1305000
1!
0$
0(
0;
0>
1C
0E
b10011 H
b11111111 I
b10011 K
b11111111 L
b10011 \
b10011 ^
b1000000010011 i
b11111111 j
1l
1m
#1310000
0!
0C
#1315000
1!
bx "!
0%
0)
1C
0E
1G
0J
bx R
1[
0a
0b
1n
#1320000
0!
0C
#1325000
1!
1,
1C
0E
0G
0J
0[
1c
0l
0m
0n
#1330000
0!
0C
#1335000
1!
b11111111 "!
0,
1C
b11111111 R
0c
#1340000
0!
0C
#1345000
1!
1%
b1000000010100 %!
b0 &!
1)
0*
b10100 5
0?
1C
1a
1b
#1350000
0!
0C
#1355000
1!
b1000000010100 #
1$
b0 &
1(
1*
b1000000010100 :
1;
b0 <
1>
1?
1C
#1360000
0!
0C
#1365000
1!
0$
0(
0;
0>
1C
0E
b10100 H
b0 I
b10100 K
b0 L
b10100 \
b10100 ^
b1000000010100 i
b0 j
1l
1m
#1370000
0!
0C
#1375000
1!
bx "!
0%
0)
1C
0E
1G
0J
bx R
1[
0a
0b
1n
#1380000
0!
0C
#1385000
1!
1,
1C
0E
0G
0J
0[
1c
0l
0m
0n
#1390000
0!
0C
#1395000
1!
b0 "!
0,
1C
b0 R
0c
#1400000
0!
0C
#1405000
1!
1%
b1000000010101 %!
b1 &!
1)
0*
b10101 5
0?
1C
1a
1b
#1410000
0!
0C
#1415000
1!
b1000000010101 #
1$
b1 &
1(
1*
b1000000010101 :
1;
b1 <
1>
1?
1C
#1420000
0!
0C
#1425000
1!
0$
0(
0;
0>
1C
0E
b10101 H
b1 I
b10101 K
b1 L
b10101 \
b10101 ^
b1000000010101 i
b1 j
1l
1m
#1430000
0!
0C
#1435000
1!
bx "!
0%
0)
1C
0E
1G
0J
bx R
1[
0a
0b
1n
#1440000
0!
0C
#1445000
1!
1,
1C
0E
0G
0J
0[
1c
0l
0m
0n
#1450000
0!
0C
#1455000
1!
b1 "!
0,
1C
b1 R
0c
#1460000
0!
0C
#1465000
1!
1%
b1000000010110 %!
b10 &!
1)
0*
b10110 5
0?
1C
1a
1b
#1470000
0!
0C
#1475000
1!
b1000000010110 #
1$
b10 &
1(
1*
b1000000010110 :
1;
b10 <
1>
1?
1C
#1480000
0!
0C
#1485000
1!
0$
0(
0;
0>
1C
0E
b10110 H
b10 I
b10110 K
b10 L
b10110 \
b10110 ^
b1000000010110 i
b10 j
1l
1m
#1490000
0!
0C
#1495000
1!
bx "!
0%
0)
1C
0E
1G
0J
bx R
1[
0a
0b
1n
#1500000
0!
0C
#1505000
1!
1,
1C
0E
0G
0J
0[
1c
0l
0m
0n
#1510000
0!
0C
#1515000
1!
b10 "!
0,
1C
b10 R
0c
#1520000
0!
0C
#1525000
1!
1%
b1000000010111 %!
b11 &!
1)
0*
b10111 5
0?
1C
1a
1b
#1530000
0!
0C
#1535000
1!
b1000000010111 #
1$
b11 &
1(
1*
b1000000010111 :
1;
b11 <
1>
1?
1C
#1540000
0!
0C
#1545000
1!
0$
0(
0;
0>
1C
0E
b10111 H
b11 I
b10111 K
b11 L
b10111 \
b10111 ^
b1000000010111 i
b11 j
1l
1m
#1550000
0!
0C
#1555000
1!
bx "!
0%
0)
1C
0E
1G
0J
bx R
1[
0a
0b
1n
#1560000
0!
0C
#1565000
1!
1,
1C
0E
0G
0J
0[
1c
0l
0m
0n
#1570000
0!
0C
#1575000
1!
b11 "!
0,
1C
b11 R
0c
#1580000
0!
0C
#1585000
1!
1%
b1000000011000 %!
b11111100 &!
1)
0*
b11000 5
0?
1C
1a
1b
#1590000
0!
0C
#1595000
1!
b1000000011000 #
1$
b11111100 &
1(
1*
b1000000011000 :
1;
b11111100 <
1>
1?
1C
#1600000
0!
0C
#1605000
1!
0$
0(
0;
0>
1C
0E
b11000 H
b11111100 I
b11000 K
b11111100 L
b11000 \
b11000 ^
b1000000011000 i
b11111100 j
1l
1m
#1610000
0!
0C
#1615000
1!
bx "!
0%
0)
1C
0E
1G
0J
bx R
1[
0a
0b
1n
#1620000
0!
0C
#1625000
1!
1,
1C
0E
0G
0J
0[
1c
0l
0m
0n
#1630000
0!
0C
#1635000
1!
b11111100 "!
0,
1C
b11111100 R
0c
#1640000
0!
0C
#1645000
1!
1%
b1000000011001 %!
b11111101 &!
1)
0*
b11001 5
0?
1C
1a
1b
#1650000
0!
0C
#1655000
1!
b1000000011001 #
1$
b11111101 &
1(
1*
b1000000011001 :
1;
b11111101 <
1>
1?
1C
#1660000
0!
0C
#1665000
1!
0$
0(
0;
0>
1C
0E
b11001 H
b11111101 I
b11001 K
b11111101 L
b11001 \
b11001 ^
b1000000011001 i
b11111101 j
1l
1m
#1670000
0!
0C
#1675000
1!
bx "!
0%
0)
1C
0E
1G
0J
bx R
1[
0a
0b
1n
#1680000
0!
0C
#1685000
1!
1,
1C
0E
0G
0J
0[
1c
0l
0m
0n
#1690000
0!
0C
#1695000
1!
b11111101 "!
0,
1C
b11111101 R
0c
#1700000
0!
0C
#1705000
1!
1%
b1000000011010 %!
b11111110 &!
1)
0*
b11010 5
0?
1C
1a
1b
#1710000
0!
0C
#1715000
1!
b1000000011010 #
1$
b11111110 &
1(
1*
b1000000011010 :
1;
b11111110 <
1>
1?
1C
#1720000
0!
0C
#1725000
1!
0$
0(
0;
0>
1C
0E
b11010 H
b11111110 I
b11010 K
b11111110 L
b11010 \
b11010 ^
b1000000011010 i
b11111110 j
1l
1m
#1730000
0!
0C
#1735000
1!
bx "!
0%
0)
1C
0E
1G
0J
bx R
1[
0a
0b
1n
#1740000
0!
0C
#1745000
1!
1,
1C
0E
0G
0J
0[
1c
0l
0m
0n
#1750000
0!
0C
#1755000
1!
b11111110 "!
0,
1C
b11111110 R
0c
#1760000
0!
0C
#1765000
1!
1%
b1000000011011 %!
b11111111 &!
1)
0*
b11011 5
0?
1C
1a
1b
#1770000
0!
0C
#1775000
1!
b1000000011011 #
1$
b11111111 &
1(
1*
b1000000011011 :
1;
b11111111 <
1>
1?
1C
#1780000
0!
0C
#1785000
1!
0$
0(
0;
0>
1C
0E
b11011 H
b11111111 I
b11011 K
b11111111 L
b11011 \
b11011 ^
b1000000011011 i
b11111111 j
1l
1m
#1790000
0!
0C
#1795000
1!
bx "!
0%
0)
1C
0E
1G
0J
bx R
1[
0a
0b
1n
#1800000
0!
0C
#1805000
1!
1,
1C
0E
0G
0J
0[
1c
0l
0m
0n
#1810000
0!
0C
#1815000
1!
b11111111 "!
0,
1C
b11111111 R
0c
#1820000
0!
0C
#1825000
1!
1%
b1000000011100 %!
b0 &!
1)
0*
b11100 5
0?
1C
1a
1b
